{
  "settings": {
    "bodyClass": "home",
    "title": "Test Tables"
  },
  "table": {
    "headers": [ "Stock", "Quantity", "Unit Cost R", "Margin %", "Margin R", "Unit Sell R", "Sub-Total", "VAT", "Total" ],
    "data": [
      {
        "total": "279.07",
        "sub_total": "293.45",
        "vat": "88.52",
        "margin_cost": "46.48",
        "margin_percent": 6,
        "unit_sell": "20.76",
        "unit_cost": "143.30",
        "title": "MSI R7 250 2GB (R72502GD3OC)",
        "quantity": 15,
        "stock": 19,
        "code": "CC04",
        "id": 1919
      },
      {
        "total": "224.12",
        "sub_total": "60.65",
        "vat": "23.44",
        "margin_cost": "92.61",
        "margin_percent": 9,
        "unit_sell": "43.72",
        "unit_cost": "128.70",
        "title": "HP Officejet Pro X451DW-printer-colour-ink-jet",
        "quantity": 5,
        "stock": 64,
        "code": "CC04",
        "id": 1049
      },
      {
        "total": "82.26",
        "sub_total": "276.81",
        "vat": "81.39",
        "margin_cost": "43.31",
        "margin_percent": 9,
        "unit_sell": "212.32",
        "unit_cost": "120.80",
        "title": "Apple Macbook Pro",
        "quantity": 3,
        "stock": 65,
        "code": "CC04",
        "id": 1756
      }
    ]
  },
  "quick_add_button": {
    "label": "<span class=\"hidden-lg hidden-md hidden-sm hidden-xs visible-xl\">Add to </span><span class=\"hidden-xs\">Quote</span></span>",
    "class": "btn btn-info"
  },
  "quick_add_products": [
    {
      "title" : "HP Officejet Pro X451DW-printer-colour-ink-jet",
      "price" : "4 134.03",
      "stock": 33,
      "code": "AMA1332"
    },
    {
      "title" : "Apple Macbook Pro",
      "price" : "24 134.03",
      "stock": 12,
      "code": "ZYZ3886"
    },
    {
      "title" : "HP Laserjet Pro H2390-toner-jet",
      "price" : "5 900.99",
      "stock": 20,
      "code": "488ITY"
    }
  ]
}