{
  "settings": {
    "bodyClass": "signup-page",
    "title": "Page Index"
  },
  "template_type": [
    {
      "label": "Components",
      "pages": [
        {
          "title": "jqPagination",
          "link": "jqpagination.html"
        }
      ]
    },
    {
      "label": "Products",
      "pages": [
        {
          "title": "Walkthrough",
          "link": "walkthrough.html"
        },
        {
          "title": "Products/Landing",
          "link": "products.html"
        },
        {
          "title": "Product Category",
          "link": "product-category.html"
        },

        {
          "title": "Search Results Grid/ List View Toggle",
          "link": "search-results-toggle.html"
        },
        {
          "title": "Search Results: Alt List View",
          "link": "search-results-list-alt.html"
        },
        {
          "title": "Single Product",
          "link": "single-product.html"
        }
      ]
    },
    {
      "label": "Orders",
      "pages": [
        {
          "title": "Order Overview",
          "link": "orders-overview.html"
        },
        {
          "title": "Order Detail",
          "link": "order-detail.html"
        },
        {
          "title": "Convert to Order",
          "link": "convert-to-order.html"
        },
        {
          "title": "Quick Order: Step 1",
          "link": "quick-order-1.html"
        },
        {
          "title": "Quick Order: Step 2",
          "link": "quick-order-2.html"
        }
      ]
    },
    {
      "label": "Quotes",
      "pages": [
        {
          "title": "Quote Overview",
          "link": "quotes-overview.html"
        },
        {
          "title": "Quote Detail",
          "link": "quote-detail.html"
        },
        {
          "title": "Generate Quote: Step 1",
          "link": "generate-quote-1.html"
        },
        {
          "title": "Generate Quote: Step 2",
          "link": "generate-quote-2.html"
        },
        {
          "title": "Generate Quote: Step 3",
          "link": "generate-quote-3.html"
        },
        {
          "title": "Quick Quote: Step 1",
          "link": "quick-quote-1.html"
        },
        {
          "title": "Quick Quote: Step 2",
          "link": "quick-quote-2.html"
        }
      ]
    },
    {
      "label": "Pages",
      "pages": [
        {
          "title": "Signup",
          "link": "signup.html"
        },
        {
          "title": "Contact",
          "link": "contact.html"
        },
        {
          "title": "Training",
          "link": "training.html"
        }
      ]
    },
    {
      "label": "Settings",
      "pages": [
        {
          "title": "Quote Settings",
          "link": "settings-quote-settings.html"
        },
        {
          "title": "Subscription Settings",
          "link": "settings-subscription.html"
        },
        {
          "title": "My Account Settings",
          "link": "settings-my-account.html"
        },
        {
          "title": "My Customer Settings",
          "link": "settings-my-customers.html"
        }
      ]
    }
  ]
}