{
  "settings": {
    "bodyClass": "home",
    "title": "Product Category"
  },
  "options": [
    {
      "label": "Browse the internet and send email",
      "value": "browse"
    },
    {
      "label": "Work with large files and programs",
      "value": "work"
    },
    {
      "label": "Travel",
      "value": "travel"
    },
    {
      "label": "Play games",
      "value": "play"
    },
    {
      "label": "Watch Movies",
      "value": "watch"
    },
    {
      "label": "Create basic documents and spreadsheets",
      "value": "documents"
    },
    {
      "label": "Make movies and music",
      "value": "create"
    }
  ],
  "brands": [
    {
      "image": "",
      "value": "acer"
    },
    {
      "image": "",
      "value": "gigabyte"
    },
    {
      "image": "",
      "value": "dell"
    },
    {
      "image": "",
      "value": "asus"
    },
    {
      "image": "",
      "value": "apple"
    },
    {
      "image": "",
      "value": "lenovo"
    },
    {
      "image": "",
      "value": "msi"
    },
    {
      "image": "",
      "value": "samsung"
    },
    {
      "image": "",
      "value": "hp"
    }
  ],
  "related_products": [
    {
      "title": "Lenovo ThinkPad EDGE Notebook",
      "price": "R1,234.00",
      "description": "Lorem Ipsum much text, such wow",
      "img": "http://placehold.it/150x100",
      "code": "CN6438",
      "stock": "33"
    },
    {
      "title": "Lenovo ThinkPad EDGE Notebook",
      "price": "R1,234.00",
      "description": "Lorem Ipsum much text, such wow",
      "img": "http://placehold.it/150x100",
      "code": "CN6438",
      "stock": "33"
    },
    {
      "title": "Lenovo ThinkPad EDGE Notebook",
      "price": "R1,234.00",
      "description": "Lorem Ipsum much text, such wow",
      "img": "http://placehold.it/150x100",
      "code": "CN6438",
      "stock": "33"
    },
    {
      "title": "Lenovo ThinkPad EDGE Notebook",
      "price": "R1,234.00",
      "description": "Lorem Ipsum much text, such wow",
      "img": "http://placehold.it/150x100",
      "code": "CN6438",
      "stock": "33"
    }
  ]
}