{
  "settings": {
    "bodyClass": "walkthrough modal-open",
    "title": "Walkthrough"
  },
  "categories": [
    {
      "title": "Computers",
      "categories_short": [
        "Desktops",
        "Workstations",
        "POS Devices & Kiosks",
        "Monitors"
      ],
      "categories_full": [
        "Desktops",
        "Workstations",
        "POS Devices & Kiosks",
        "Monitors",
        "Laptops",
        "Tablets",
        "UltraBooks",
        "Netbooks",
        "Laptop Bags & Accessories",
        "Mobile Workstations"
      ]
    },
    {
      "title": "Printing",
      "categories_short": [
        "Laser & Inkjet Printers",
        "Multifunction Printers",
        "Special Printers",
        "Printer Consumables"
      ],
      "categories_full": [
        "Laser & Inkjet Printers",
        "Multifunction Printers",
        "Special Printers",
        "Printer Consumables"
      ]
    },
    {
      "title": "Office Equipment",
      "categories_short": [
        "Office Machines",
        "Communication",
        "Projectors",
        "Routers & Switches"
      ],
      "categories_full": [
        "Office Machines",
        "Communication",
        "Projectors",
        "Routers & Switches"
      ]
    },
    {
      "title": "Storage & Memory",
      "categories_short": [
        "Hard Drives",
        "Memory (RAM)",
        "Flash Memory & Media",
        "Servers"
      ],
      "categories_full": [
        "Hard Drives",
        "Memory (RAM)",
        "Flash Memory & Media",
        "Servers"
      ]
    },
    {
      "title": "Networking",
      "categories_short": [
        "Routers & Switches",
        "Network Adapters",
        "More Networking Options",
        "Storage & Memory"
      ],
      "categories_full": [
        "Routers & Switches",
        "Network Adapters",
        "More Networking Options",
        "Storage & Memory"
      ]
    },
    {
      "title": "Components",
      "categories_short": [
        "System Cases & Optical Drives",
        "Processors & Motherboards",
        "Memory (RAM)",
        "Sound & Graphic Cards"
      ],
      "categories_full": [
        "System Cases & Optical Drives",
        "Processors & Motherboards",
        "Memory (RAM)",
        "Sound & Graphic Cards"
      ]
    },
    {
      "title": "Peripherals",
      "categories_short": [
        "Power & Batteries",
        "Cables",
        "Controller Cards",
        "Accessories"
      ],
      "categories_full": [
        "Power & Batteries",
        "Cables",
        "Controller Cards",
        "Accessories"
      ]
    },
    {
      "title": "Software",
      "categories_short": [
        "Applications",
        "Operating Systems",
        "Software Suites & Office",
        "Antivirus Software"
      ],
      "categories_full": [
        "Applications",
        "Operating Systems",
        "Software Suites & Office",
        "Antivirus Software"
      ]
    }
  ],
  "carousel": {
    "title": "Featured Products",
    "products": [
      {
        "title": "EPSON L355 Inkjet Printer",
        "price": "R 1,234.00",
        "description": "B5030 - Intel Pentium Quad Core N3540, , 1x 4GB DDR3L Memory (2x SO-Dimm, Up to 8GB) (Low Voltage), 500GB 5400 RPM HDD, 15.6 HD Anti-Glare Display, Intel Graphics, Optical Drive...",
        "img": "http://placehold.it/108x70"
      },
      {
        "title": "Lenovo ThinkPad EDGE Notebook",
        "price": "R 1,234.00",
        "description": "Go faster and further with a notebook or netbook memory upgrade from Crucial.",
        "img": "http://placehold.it/108x70"
      },
      {
        "title": "ASUS H61M-K Motherboard - Micro ATX - LGA1155 Socket - H61",
        "price": "R 1,234.00",
        "description": "SanDisk Extreme PRO SSD delivers super-fast 550MB/s sequential read speeds so you can work, and play, with no delays.",
        "img": "http://placehold.it/108x70"
      },
      {
        "title": "PC-HP 110 J1800 Workstation",
        "price": "R 1,234.00",
        "description": "Engineered from the ground up specifically for use in portable computers",
        "img": "http://placehold.it/108x70"
      },
      {
        "title": "Acer Aspire ES1-512",
        "price": "R 1,234.00",
        "description": "MW7H380GTGS is the newest series of Primary Switched Power Supply with environmental friendly design.",
        "img": "http://placehold.it/108x70"
      },
      {
        "title": "Samsung Galaxy Tab 4 10 3G & WiFi 16GB - Black",
        "price": "R 1,234.00",
        "description": "Most powerful X99 motherboard with OC Panel and USB 3.1 Type-A (Dual) card bundled",
        "img": "http://placehold.it/108x70"
      },
      {
        "title": "Huawei E5577 Wireless Portable Router",
        "price": "R 1,234.00",
        "description": "B5030 - Intel Pentium Quad Core N3540, , 1x 4GB DDR3L Memory (2x SO-Dimm, Up to 8GB) (Low Voltage), 500GB 5400 RPM HDD, 15.6 HD Anti-Glare Display, Intel Graphics, Optical Drive...",
        "img": "http://placehold.it/108x70"
      },
      {
        "title": "WD My Passport Ultra 2TB - Black",
        "price": "R 1,234.00",
        "description": "MW7H380GTGS is the newest series of Primary Switched Power Supply with environmental friendly design.",
        "img": "http://placehold.it/108x70"
      },
      {
        "title": "Kensington KeyFolio Keyboard Case for Samsung TAB 3 - Black",
        "price": "R 1,234.00",
        "description": "SanDisk Extreme PRO SSD delivers super-fast 550MB/s sequential read speeds so you can work, and play, with no delays.",
        "img": "http://placehold.it/108x70"
      },
      {
        "title": "NB-ACER ES1-111M N2840 2/32 11",
        "price": "R 1,234.00",
        "description": "Kingston HyperX Fury Series - 240GB 2.5 SATA3 SSD",
        "img": "http://placehold.it/108x70"
      },
      {
        "title": "Gigabyte 85M-HD3-A M-ATX Motherboard - Socket 1150",
        "price": "R 1,234.00",
        "description": "SanDisk Extreme PRO SSD delivers super-fast 550MB/s sequential read speeds so you can work, and play, with no delays.",
        "img": "http://placehold.it/108x70"
      },
      {
        "title": "Linksys X3500 N750 Dual-Band Wireless Router with ADSL2+ Modem",
        "price": "R 1,234.00",
        "description": "Kingston HyperX Fury Series - 240GB 2.5 SATA3 SSD",
        "img": "http://placehold.it/108x70"
      },
      {
        "title": "Lenovo ThinkPad EDGE Notebook",
        "price": "R 1,234.00",
        "description": "Antec NEO ECO Modular - 550W Industrial Grade Protection Circuitry",
        "img": "http://placehold.it/108x70"
      },
      {
        "title": "EVGA nVidia GeForce GTX960 GPU",
        "price": "R 1,234.00",
        "description": "Drive CPU and DDR4 performance beyond the limits!",
        "img": "http://placehold.it/108x70"
      },
      {
        "title": "Billion BIPAC 7402NX",
        "price": "R 1,234.00",
        "description": "Optimized for extreme overclocking.",
        "img": "http://placehold.it/108x70"
      }
    ]
  }
}